private void leapAttack()
    {
        navAgent.speed = 10;
        anim.Play("pounce");

        StartCoroutine(inLeap());
        //transform.position = Vector3.Lerp(transform.position,
        //  player.transform.position , 22 *Time.deltaTime);
    }

   //-----------------------------------------------------------------------------------------------------
        //if (!leapRange())
        //    {
        //        // if (Vector3.Distance(transform.position, player.transform.position) <= navAgent.stoppingDistance * 1.2)
        //        if (attackInRange())
        //        {
        //            anim.Play("attack");
        //        }
        //        else
        //        {
        //            if (!anim.GetCurrentAnimatorStateInfo(0).IsName("attack"))
        //                anim.Play("crawl");
        //        }
        //    }
        //    else if (!isLeapOnCooldown)
        //    {
        //        //        isLeapOnCooldown = true;
        //        //      Debug.Log(isLeapOnCooldown);
        //        leapAttack();
        //        StartCoroutine(leapCooldown());

        //        //Debug.Log(isLeapOnCooldown);

        //    }
        //}
        //-----------------------------------------------------------------------------------------------------