%YAML 1.1
%TAG !u! tag:unity3d.com,2011:
--- !u!1011 &101100000
AvatarMask:
  m_ObjectHideFlags: 0
  m_PrefabParentObject: {fileID: 0}
  m_PrefabInternal: {fileID: 0}
  m_Name: RayGun
  m_Mask: 01000000000000000000000000000000000000000100000001000000010000000100000001000000010000000100000001000000
  m_Elements:
  - m_Path: 
    m_Weight: 1
